{
	"partitions" : [
		{
			"name" : "Top",
			"pins" : [
				{
					"name" : "SDRAM_CAS_n",
					"strict" : false
				},
				{
					"name" : "SDRAM_CS_n",
					"strict" : false
				},
				{
					"name" : "SDRAM_RAS_n",
					"strict" : false
				},
				{
					"name" : "SDRAM_WE_n",
					"strict" : false
				},
				{
					"name" : "LEDS[7]",
					"strict" : false
				},
				{
					"name" : "LEDS[6]",
					"strict" : false
				},
				{
					"name" : "LEDS[5]",
					"strict" : false
				},
				{
					"name" : "LEDS[4]",
					"strict" : false
				},
				{
					"name" : "LEDS[3]",
					"strict" : false
				},
				{
					"name" : "LEDS[2]",
					"strict" : false
				},
				{
					"name" : "LEDS[1]",
					"strict" : false
				},
				{
					"name" : "LEDS[0]",
					"strict" : false
				},
				{
					"name" : "SDRAM_AD[11]",
					"strict" : false
				},
				{
					"name" : "SDRAM_AD[10]",
					"strict" : false
				},
				{
					"name" : "SDRAM_AD[9]",
					"strict" : false
				},
				{
					"name" : "SDRAM_AD[8]",
					"strict" : false
				},
				{
					"name" : "SDRAM_AD[7]",
					"strict" : false
				},
				{
					"name" : "SDRAM_AD[6]",
					"strict" : false
				},
				{
					"name" : "SDRAM_AD[5]",
					"strict" : false
				},
				{
					"name" : "SDRAM_AD[4]",
					"strict" : false
				},
				{
					"name" : "SDRAM_AD[3]",
					"strict" : false
				},
				{
					"name" : "SDRAM_AD[2]",
					"strict" : false
				},
				{
					"name" : "SDRAM_AD[1]",
					"strict" : false
				},
				{
					"name" : "SDRAM_AD[0]",
					"strict" : false
				},
				{
					"name" : "SDRAM_BA1[1]",
					"strict" : false
				},
				{
					"name" : "SDRAM_BA1[0]",
					"strict" : false
				},
				{
					"name" : "SDRAM_DQM[1]",
					"strict" : false
				},
				{
					"name" : "SDRAM_DQM[0]",
					"strict" : false
				},
				{
					"name" : "SDRAM_DQ[15]",
					"strict" : false
				},
				{
					"name" : "SDRAM_DQ[14]",
					"strict" : false
				},
				{
					"name" : "SDRAM_DQ[13]",
					"strict" : false
				},
				{
					"name" : "SDRAM_DQ[12]",
					"strict" : false
				},
				{
					"name" : "SDRAM_DQ[11]",
					"strict" : false
				},
				{
					"name" : "SDRAM_DQ[10]",
					"strict" : false
				},
				{
					"name" : "SDRAM_DQ[9]",
					"strict" : false
				},
				{
					"name" : "SDRAM_DQ[8]",
					"strict" : false
				},
				{
					"name" : "SDRAM_DQ[7]",
					"strict" : false
				},
				{
					"name" : "SDRAM_DQ[6]",
					"strict" : false
				},
				{
					"name" : "SDRAM_DQ[5]",
					"strict" : false
				},
				{
					"name" : "SDRAM_DQ[4]",
					"strict" : false
				},
				{
					"name" : "SDRAM_DQ[3]",
					"strict" : false
				},
				{
					"name" : "SDRAM_DQ[2]",
					"strict" : false
				},
				{
					"name" : "SDRAM_DQ[1]",
					"strict" : false
				},
				{
					"name" : "SDRAM_DQ[0]",
					"strict" : false
				},
				{
					"name" : "Clk_50M",
					"strict" : false
				},
				{
					"name" : "Reset",
					"strict" : false
				},
				{
					"name" : "altera_reserved_tms",
					"strict" : false
				},
				{
					"name" : "altera_reserved_tck",
					"strict" : false
				},
				{
					"name" : "altera_reserved_tdi",
					"strict" : false
				},
				{
					"name" : "altera_reserved_tdo",
					"strict" : false
				}
			]
		}
	]
}