Info: Starting: Create block symbol file (.bsf)
Info: qsys-generate /home/quartus/tp/tp1.qsys --block-symbol-file --output-directory=/home/quartus/tp/tp1 --family="Cyclone IV E" --part=EP4CE30F23C7
Progress: Loading tp/tp1.qsys
Progress: Reading input file
Progress: Adding CPU [altera_nios2_gen2 18.0]
Progress: Parameterizing module CPU
Progress: Adding LEDs [altera_avalon_pio 18.0]
Progress: Parameterizing module LEDs
Progress: Adding SDRAM_controller [altera_avalon_new_sdram_controller 18.0]
Progress: Parameterizing module SDRAM_controller
Progress: Adding altpll_0 [altpll 18.0]
Progress: Parameterizing module altpll_0
Progress: Adding clk_0 [clock_source 18.0]
Progress: Parameterizing module clk_0
Progress: Adding jtag_uart [altera_avalon_jtag_uart 18.0]
Progress: Parameterizing module jtag_uart
Progress: Adding sysid_qsys_0 [altera_avalon_sysid_qsys 18.0]
Progress: Parameterizing module sysid_qsys_0
Progress: Building connections
Progress: Parameterizing connections
Progress: Validating
Progress: Done reading input file
Info: tp1.SDRAM_controller: SDRAM Controller will only be supported in Quartus Prime Standard Edition in the future release.
Info: tp1.jtag_uart: JTAG UART IP input clock need to be at least double (2x) the operating frequency of JTAG TCK on board
Info: tp1.sysid_qsys_0: System ID is not assigned automatically. Edit the System ID parameter to provide a unique ID
Info: tp1.sysid_qsys_0: Time stamp will be automatically updated when this component is generated.
Info: qsys-generate succeeded.
Info: Finished: Create block symbol file (.bsf)
Info: 
Info: Starting: Create HDL design files for synthesis
Info: qsys-generate /home/quartus/tp/tp1.qsys --synthesis=VHDL --output-directory=/home/quartus/tp/tp1/synthesis --family="Cyclone IV E" --part=EP4CE30F23C7
Progress: Loading tp/tp1.qsys
Progress: Reading input file
Progress: Adding CPU [altera_nios2_gen2 18.0]
Progress: Parameterizing module CPU
Progress: Adding LEDs [altera_avalon_pio 18.0]
Progress: Parameterizing module LEDs
Progress: Adding SDRAM_controller [altera_avalon_new_sdram_controller 18.0]
Progress: Parameterizing module SDRAM_controller
Progress: Adding altpll_0 [altpll 18.0]
Progress: Parameterizing module altpll_0
Progress: Adding clk_0 [clock_source 18.0]
Progress: Parameterizing module clk_0
Progress: Adding jtag_uart [altera_avalon_jtag_uart 18.0]
Progress: Parameterizing module jtag_uart
Progress: Adding sysid_qsys_0 [altera_avalon_sysid_qsys 18.0]
Progress: Parameterizing module sysid_qsys_0
Progress: Building connections
Progress: Parameterizing connections
Progress: Validating
Progress: Done reading input file
Info: tp1.SDRAM_controller: SDRAM Controller will only be supported in Quartus Prime Standard Edition in the future release.
Info: tp1.jtag_uart: JTAG UART IP input clock need to be at least double (2x) the operating frequency of JTAG TCK on board
Info: tp1.sysid_qsys_0: System ID is not assigned automatically. Edit the System ID parameter to provide a unique ID
Info: tp1.sysid_qsys_0: Time stamp will be automatically updated when this component is generated.
Info: tp1: Generating tp1 "tp1" for QUARTUS_SYNTH
Info: Inserting clock-crossing logic between cmd_demux.src3 and cmd_mux_003.sink0
Info: Inserting clock-crossing logic between rsp_demux_003.src0 and rsp_mux.sink3
Info: CPU: "tp1" instantiated altera_nios2_gen2 "CPU"
Info: LEDs: Starting RTL generation for module 'tp1_LEDs'
Info: LEDs:   Generation command is [exec /opt/intelFPGA_lite/18.0/quartus/linux64/perl/bin/perl -I /opt/intelFPGA_lite/18.0/quartus/linux64/perl/lib -I /opt/intelFPGA_lite/18.0/quartus/sopc_builder/bin/europa -I /opt/intelFPGA_lite/18.0/quartus/sopc_builder/bin/perl_lib -I /opt/intelFPGA_lite/18.0/quartus/sopc_builder/bin -I /opt/intelFPGA_lite/18.0/quartus/../ip/altera/sopc_builder_ip/common -I /opt/intelFPGA_lite/18.0/quartus/../ip/altera/sopc_builder_ip/altera_avalon_pio -- /opt/intelFPGA_lite/18.0/quartus/../ip/altera/sopc_builder_ip/altera_avalon_pio/generate_rtl.pl --name=tp1_LEDs --dir=/tmp/alt7800_6711297931132949162.dir/0002_LEDs_gen/ --quartus_dir=/opt/intelFPGA_lite/18.0/quartus --verilog --config=/tmp/alt7800_6711297931132949162.dir/0002_LEDs_gen//tp1_LEDs_component_configuration.pl  --do_build_sim=0  ]
Info: LEDs: Done RTL generation for module 'tp1_LEDs'
Info: LEDs: "tp1" instantiated altera_avalon_pio "LEDs"
Info: SDRAM_controller: Starting RTL generation for module 'tp1_SDRAM_controller'
Info: SDRAM_controller:   Generation command is [exec /opt/intelFPGA_lite/18.0/quartus/linux64/perl/bin/perl -I /opt/intelFPGA_lite/18.0/quartus/linux64/perl/lib -I /opt/intelFPGA_lite/18.0/quartus/sopc_builder/bin/europa -I /opt/intelFPGA_lite/18.0/quartus/sopc_builder/bin/perl_lib -I /opt/intelFPGA_lite/18.0/quartus/sopc_builder/bin -I /opt/intelFPGA_lite/18.0/quartus/../ip/altera/sopc_builder_ip/common -I /opt/intelFPGA_lite/18.0/quartus/../ip/altera/sopc_builder_ip/altera_avalon_new_sdram_controller -- /opt/intelFPGA_lite/18.0/quartus/../ip/altera/sopc_builder_ip/altera_avalon_new_sdram_controller/generate_rtl.pl --name=tp1_SDRAM_controller --dir=/tmp/alt7800_6711297931132949162.dir/0003_SDRAM_controller_gen/ --quartus_dir=/opt/intelFPGA_lite/18.0/quartus --verilog --config=/tmp/alt7800_6711297931132949162.dir/0003_SDRAM_controller_gen//tp1_SDRAM_controller_component_configuration.pl  --do_build_sim=0  ]
Info: SDRAM_controller: Done RTL generation for module 'tp1_SDRAM_controller'
Info: SDRAM_controller: "tp1" instantiated altera_avalon_new_sdram_controller "SDRAM_controller"
Info: altpll_0: "tp1" instantiated altpll "altpll_0"
Info: jtag_uart: Starting RTL generation for module 'tp1_jtag_uart'
Info: jtag_uart:   Generation command is [exec /opt/intelFPGA_lite/18.0/quartus/linux64/perl/bin/perl -I /opt/intelFPGA_lite/18.0/quartus/linux64/perl/lib -I /opt/intelFPGA_lite/18.0/quartus/sopc_builder/bin/europa -I /opt/intelFPGA_lite/18.0/quartus/sopc_builder/bin/perl_lib -I /opt/intelFPGA_lite/18.0/quartus/sopc_builder/bin -I /opt/intelFPGA_lite/18.0/quartus/../ip/altera/sopc_builder_ip/common -I /opt/intelFPGA_lite/18.0/quartus/../ip/altera/sopc_builder_ip/altera_avalon_jtag_uart -- /opt/intelFPGA_lite/18.0/quartus/../ip/altera/sopc_builder_ip/altera_avalon_jtag_uart/generate_rtl.pl --name=tp1_jtag_uart --dir=/tmp/alt7800_6711297931132949162.dir/0006_jtag_uart_gen/ --quartus_dir=/opt/intelFPGA_lite/18.0/quartus --verilog --config=/tmp/alt7800_6711297931132949162.dir/0006_jtag_uart_gen//tp1_jtag_uart_component_configuration.pl  --do_build_sim=0  ]
Info: jtag_uart: Done RTL generation for module 'tp1_jtag_uart'
Info: jtag_uart: "tp1" instantiated altera_avalon_jtag_uart "jtag_uart"
Info: sysid_qsys_0: "tp1" instantiated altera_avalon_sysid_qsys "sysid_qsys_0"
Info: avalon_st_adapter: Inserting error_adapter: error_adapter_0
Info: avalon_st_adapter_001: Inserting error_adapter: error_adapter_0
Info: avalon_st_adapter_002: Inserting error_adapter: error_adapter_0
Info: avalon_st_adapter_003: Inserting error_adapter: error_adapter_0
Info: avalon_st_adapter_004: Inserting error_adapter: error_adapter_0
Info: avalon_st_adapter_005: Inserting error_adapter: error_adapter_0
Info: mm_interconnect_0: "tp1" instantiated altera_mm_interconnect "mm_interconnect_0"
Info: irq_mapper: "tp1" instantiated altera_irq_mapper "irq_mapper"
Info: rst_controller: "tp1" instantiated altera_reset_controller "rst_controller"
Info: cpu: Starting RTL generation for module 'tp1_CPU_cpu'
Info: cpu:   Generation command is [exec /opt/intelFPGA_lite/18.0/quartus/linux64//eperlcmd -I /opt/intelFPGA_lite/18.0/quartus/linux64//perl/lib -I /opt/intelFPGA_lite/18.0/quartus/sopc_builder/bin/europa -I /opt/intelFPGA_lite/18.0/quartus/sopc_builder/bin/perl_lib -I /opt/intelFPGA_lite/18.0/quartus/sopc_builder/bin -I /opt/intelFPGA_lite/18.0/quartus/../ip/altera/nios2_ip/altera_nios2_gen2/cpu_lib -I /opt/intelFPGA_lite/18.0/quartus/../ip/altera/nios2_ip/altera_nios2_gen2/nios_lib -I /opt/intelFPGA_lite/18.0/quartus/../ip/altera/nios2_ip/altera_nios2_gen2 -I /opt/intelFPGA_lite/18.0/quartus/../ip/altera/nios2_ip/altera_nios2_gen2 -- /opt/intelFPGA_lite/18.0/quartus/../ip/altera/nios2_ip/altera_nios2_gen2/generate_rtl.epl --name=tp1_CPU_cpu --dir=/tmp/alt7800_6711297931132949162.dir/0010_cpu_gen/ --quartus_bindir=/opt/intelFPGA_lite/18.0/quartus/linux64/ --verilog --config=/tmp/alt7800_6711297931132949162.dir/0010_cpu_gen//tp1_CPU_cpu_processor_configuration.pl  --do_build_sim=0  ]
Info: cpu: # 2018.09.26 17:09:16 (*) Starting Nios II generation
Info: cpu: # 2018.09.26 17:09:16 (*)   Checking for plaintext license.
Info: cpu: # 2018.09.26 17:09:17 (*)   Couldn't query license setup in Quartus directory /opt/intelFPGA_lite/18.0/quartus/linux64/
Info: cpu: # 2018.09.26 17:09:17 (*)   Defaulting to contents of LM_LICENSE_FILE environment variable
Info: cpu: # 2018.09.26 17:09:17 (*)   LM_LICENSE_FILE environment variable is empty
Info: cpu: # 2018.09.26 17:09:17 (*)   Plaintext license not found.
Info: cpu: # 2018.09.26 17:09:17 (*)   Checking for encrypted license (non-evaluation).
Info: cpu: # 2018.09.26 17:09:18 (*)   Couldn't query license setup in Quartus directory /opt/intelFPGA_lite/18.0/quartus/linux64/
Info: cpu: # 2018.09.26 17:09:18 (*)   Defaulting to contents of LM_LICENSE_FILE environment variable
Info: cpu: # 2018.09.26 17:09:18 (*)   LM_LICENSE_FILE environment variable is empty
Info: cpu: # 2018.09.26 17:09:18 (*)   Encrypted license not found.  Defaulting to OCP evaluation license (produces a time-limited SOF)
Info: cpu: # 2018.09.26 17:09:18 (*)   Elaborating CPU configuration settings
Info: cpu: # 2018.09.26 17:09:18 (*)   Creating all objects for CPU
Info: cpu: # 2018.09.26 17:09:18 (*)     Testbench
Info: cpu: # 2018.09.26 17:09:18 (*)     Instruction decoding
Info: cpu: # 2018.09.26 17:09:18 (*)       Instruction fields
Info: cpu: # 2018.09.26 17:09:18 (*)       Instruction decodes
Info: cpu: # 2018.09.26 17:09:19 (*)       Signals for RTL simulation waveforms
Info: cpu: # 2018.09.26 17:09:19 (*)       Instruction controls
Info: cpu: # 2018.09.26 17:09:19 (*)     Pipeline frontend
Info: cpu: # 2018.09.26 17:09:19 (*)     Pipeline backend
Info: cpu: # 2018.09.26 17:09:21 (*)   Generating RTL from CPU objects
Info: cpu: # 2018.09.26 17:09:23 (*)   Creating encrypted RTL
Info: cpu: # 2018.09.26 17:09:24 (*) Done Nios II generation
Info: cpu: Done RTL generation for module 'tp1_CPU_cpu'
Info: cpu: "CPU" instantiated altera_nios2_gen2_unit "cpu"
Info: CPU_data_master_translator: "mm_interconnect_0" instantiated altera_merlin_master_translator "CPU_data_master_translator"
Info: jtag_uart_avalon_jtag_slave_translator: "mm_interconnect_0" instantiated altera_merlin_slave_translator "jtag_uart_avalon_jtag_slave_translator"
Info: CPU_data_master_agent: "mm_interconnect_0" instantiated altera_merlin_master_agent "CPU_data_master_agent"
Info: jtag_uart_avalon_jtag_slave_agent: "mm_interconnect_0" instantiated altera_merlin_slave_agent "jtag_uart_avalon_jtag_slave_agent"
Info: jtag_uart_avalon_jtag_slave_agent_rsp_fifo: "mm_interconnect_0" instantiated altera_avalon_sc_fifo "jtag_uart_avalon_jtag_slave_agent_rsp_fifo"
Info: router: "mm_interconnect_0" instantiated altera_merlin_router "router"
Info: router_001: "mm_interconnect_0" instantiated altera_merlin_router "router_001"
Info: router_002: "mm_interconnect_0" instantiated altera_merlin_router "router_002"
Info: router_004: "mm_interconnect_0" instantiated altera_merlin_router "router_004"
Info: router_006: "mm_interconnect_0" instantiated altera_merlin_router "router_006"
Info: CPU_data_master_limiter: "mm_interconnect_0" instantiated altera_merlin_traffic_limiter "CPU_data_master_limiter"
Info: Reusing file /home/quartus/tp/tp1/synthesis/submodules/altera_avalon_sc_fifo.v
Info: SDRAM_controller_s1_burst_adapter: "mm_interconnect_0" instantiated altera_merlin_burst_adapter "SDRAM_controller_s1_burst_adapter"
Info: Reusing file /home/quartus/tp/tp1/synthesis/submodules/altera_avalon_st_pipeline_base.v
Info: cmd_demux: "mm_interconnect_0" instantiated altera_merlin_demultiplexer "cmd_demux"
Info: cmd_demux_001: "mm_interconnect_0" instantiated altera_merlin_demultiplexer "cmd_demux_001"
Info: cmd_mux: "mm_interconnect_0" instantiated altera_merlin_multiplexer "cmd_mux"
Info: cmd_mux_002: "mm_interconnect_0" instantiated altera_merlin_multiplexer "cmd_mux_002"
Info: Reusing file /home/quartus/tp/tp1/synthesis/submodules/altera_merlin_arbitrator.sv
Info: rsp_demux: "mm_interconnect_0" instantiated altera_merlin_demultiplexer "rsp_demux"
Info: rsp_demux_002: "mm_interconnect_0" instantiated altera_merlin_demultiplexer "rsp_demux_002"
Info: rsp_mux: "mm_interconnect_0" instantiated altera_merlin_multiplexer "rsp_mux"
Info: Reusing file /home/quartus/tp/tp1/synthesis/submodules/altera_merlin_arbitrator.sv
Info: rsp_mux_001: "mm_interconnect_0" instantiated altera_merlin_multiplexer "rsp_mux_001"
Info: Reusing file /home/quartus/tp/tp1/synthesis/submodules/altera_merlin_arbitrator.sv
Info: SDRAM_controller_s1_rsp_width_adapter: "mm_interconnect_0" instantiated altera_merlin_width_adapter "SDRAM_controller_s1_rsp_width_adapter"
Info: Reusing file /home/quartus/tp/tp1/synthesis/submodules/altera_merlin_address_alignment.sv
Info: Reusing file /home/quartus/tp/tp1/synthesis/submodules/altera_merlin_burst_uncompressor.sv
Info: crosser: "mm_interconnect_0" instantiated altera_avalon_st_handshake_clock_crosser "crosser"
Info: Reusing file /home/quartus/tp/tp1/synthesis/submodules/altera_avalon_st_pipeline_base.v
Info: avalon_st_adapter: "mm_interconnect_0" instantiated altera_avalon_st_adapter "avalon_st_adapter"
Info: avalon_st_adapter_004: "mm_interconnect_0" instantiated altera_avalon_st_adapter "avalon_st_adapter_004"
Info: error_adapter_0: "avalon_st_adapter" instantiated error_adapter "error_adapter_0"
Info: error_adapter_0: "avalon_st_adapter_004" instantiated error_adapter "error_adapter_0"
Info: tp1: Done "tp1" with 37 modules, 69 files
Info: qsys-generate succeeded.
Info: Finished: Create HDL design files for synthesis
