-- Contents are randomly generated during RTL generation.
WIDTH=19;
DEPTH=512;

ADDRESS_RADIX=HEX;
DATA_RADIX=HEX;

CONTENT BEGIN

000 : 2870e;
001 : 450c7;
002 : 532b0;
003 : 66f82;
004 : 68fd4;
005 : 0bb38;
006 : 0903c;
007 : 0b473;
008 : 4f16c;
009 : 730d7;
00a : 08360;
00b : 5880f;
00c : 16dcd;
00d : 0a275;
00e : 70594;
00f : 2e053;
010 : 61313;
011 : 5534c;
012 : 50c55;
013 : 4528c;
014 : 62091;
015 : 7d6d1;
016 : 623fe;
017 : 178c9;
018 : 5a1b9;
019 : 5c831;
01a : 6374f;
01b : 0be61;
01c : 7c442;
01d : 67a10;
01e : 23264;
01f : 0125e;
020 : 0c46e;
021 : 0e998;
022 : 30f4c;
023 : 1d998;
024 : 0c458;
025 : 2005a;
026 : 75b15;
027 : 3d9cb;
028 : 4a532;
029 : 0c3b6;
02a : 03ed2;
02b : 52a1e;
02c : 53a0f;
02d : 2b7b8;
02e : 4ba1c;
02f : 7694f;
030 : 269d3;
031 : 41121;
032 : 45240;
033 : 5a745;
034 : 7b3e3;
035 : 62ce9;
036 : 69e4f;
037 : 47c64;
038 : 2e473;
039 : 566f2;
03a : 2af5e;
03b : 35bf0;
03c : 5a5cd;
03d : 4f793;
03e : 7ea54;
03f : 00324;
040 : 198d0;
041 : 625e6;
042 : 0402c;
043 : 19713;
044 : 1679b;
045 : 6d989;
046 : 3b82a;
047 : 038f5;
048 : 101cb;
049 : 745fe;
04a : 3ce95;
04b : 4c368;
04c : 6fdf6;
04d : 53f8e;
04e : 77833;
04f : 38a01;
050 : 35976;
051 : 56a82;
052 : 0cfab;
053 : 720bd;
054 : 68df6;
055 : 0d979;
056 : 22738;
057 : 09628;
058 : 37407;
059 : 0d1fc;
05a : 055d7;
05b : 4d3a4;
05c : 08b1b;
05d : 7df2c;
05e : 4822a;
05f : 1fce0;
060 : 01e7c;
061 : 205e3;
062 : 778ba;
063 : 0a049;
064 : 7343c;
065 : 0f1b0;
066 : 25877;
067 : 71ef1;
068 : 6a871;
069 : 7a525;
06a : 5b3e8;
06b : 2f9f4;
06c : 58229;
06d : 0aad3;
06e : 4a08f;
06f : 2e44c;
070 : 19d12;
071 : 6ce80;
072 : 72ed6;
073 : 76a29;
074 : 57d68;
075 : 5913c;
076 : 75638;
077 : 05e88;
078 : 1b598;
079 : 77373;
07a : 5fa5d;
07b : 277c0;
07c : 4ce38;
07d : 19a40;
07e : 3b643;
07f : 1730b;
080 : 24284;
081 : 724f5;
082 : 65762;
083 : 7b65d;
084 : 336dd;
085 : 0c786;
086 : 58f3c;
087 : 4d2f5;
088 : 156dc;
089 : 25859;
08a : 0772e;
08b : 579e0;
08c : 7db4e;
08d : 4932f;
08e : 29259;
08f : 6108a;
090 : 5b57a;
091 : 3f848;
092 : 15e3b;
093 : 652cf;
094 : 25227;
095 : 4e431;
096 : 3b8c0;
097 : 66004;
098 : 5754e;
099 : 0184e;
09a : 181ca;
09b : 1fbbc;
09c : 419a4;
09d : 5ee76;
09e : 207d3;
09f : 13e63;
0a0 : 515aa;
0a1 : 59c4f;
0a2 : 23ec2;
0a3 : 31ec7;
0a4 : 0c758;
0a5 : 436d7;
0a6 : 7f03b;
0a7 : 73159;
0a8 : 34fe9;
0a9 : 1e396;
0aa : 3a036;
0ab : 052d3;
0ac : 42c1e;
0ad : 691cb;
0ae : 49576;
0af : 6c97b;
0b0 : 3b3ff;
0b1 : 56a35;
0b2 : 6248a;
0b3 : 0f904;
0b4 : 2e406;
0b5 : 3ec2a;
0b6 : 04c6a;
0b7 : 4d3b4;
0b8 : 115bf;
0b9 : 586c6;
0ba : 4c1f6;
0bb : 34244;
0bc : 656d1;
0bd : 53928;
0be : 73731;
0bf : 52236;
0c0 : 18d78;
0c1 : 52705;
0c2 : 4c924;
0c3 : 45f87;
0c4 : 544aa;
0c5 : 5a5ed;
0c6 : 1ec05;
0c7 : 14059;
0c8 : 480ab;
0c9 : 57274;
0ca : 17c9f;
0cb : 27ece;
0cc : 5c74e;
0cd : 259de;
0ce : 1d703;
0cf : 31382;
0d0 : 4e5c9;
0d1 : 069e0;
0d2 : 09ec7;
0d3 : 08a8a;
0d4 : 154a5;
0d5 : 66b1e;
0d6 : 35b69;
0d7 : 51826;
0d8 : 0895f;
0d9 : 2faf3;
0da : 27cac;
0db : 7d524;
0dc : 46ab1;
0dd : 75984;
0de : 22d8d;
0df : 2c72d;
0e0 : 78973;
0e1 : 75f7d;
0e2 : 70784;
0e3 : 2603c;
0e4 : 03865;
0e5 : 7a48c;
0e6 : 607da;
0e7 : 60b4e;
0e8 : 68063;
0e9 : 046dd;
0ea : 06b1d;
0eb : 2a42c;
0ec : 7a939;
0ed : 17d88;
0ee : 6a0c6;
0ef : 79a23;
0f0 : 581bd;
0f1 : 7a328;
0f2 : 077cf;
0f3 : 09aab;
0f4 : 47aab;
0f5 : 3597e;
0f6 : 14436;
0f7 : 7cd2b;
0f8 : 5e8fe;
0f9 : 1e1da;
0fa : 780c2;
0fb : 7e95b;
0fc : 41e67;
0fd : 37f7b;
0fe : 0b23d;
0ff : 1190d;
100 : 6bd13;
101 : 592ba;
102 : 04bce;
103 : 6c59a;
104 : 54a9d;
105 : 08cd9;
106 : 3afdc;
107 : 4eef9;
108 : 75d34;
109 : 11b36;
10a : 045db;
10b : 53819;
10c : 01fd2;
10d : 584a3;
10e : 0d56d;
10f : 1b835;
110 : 42d83;
111 : 54f52;
112 : 0d2b9;
113 : 50224;
114 : 291a8;
115 : 0d7ea;
116 : 20498;
117 : 05eac;
118 : 4c817;
119 : 3e2d8;
11a : 1c171;
11b : 682d4;
11c : 78942;
11d : 6a7a2;
11e : 6fae0;
11f : 42f05;
120 : 7a847;
121 : 7a7c5;
122 : 1a36e;
123 : 79044;
124 : 7e8dd;
125 : 5db18;
126 : 79363;
127 : 0522b;
128 : 1bae3;
129 : 34602;
12a : 678d9;
12b : 48e0e;
12c : 17712;
12d : 7d189;
12e : 6b63a;
12f : 582eb;
130 : 35422;
131 : 4afa1;
132 : 0062b;
133 : 2e286;
134 : 08e1f;
135 : 6af34;
136 : 00c8a;
137 : 3faac;
138 : 5e56d;
139 : 4b07c;
13a : 1f306;
13b : 14d33;
13c : 0f3f8;
13d : 6ceb1;
13e : 3d2d3;
13f : 22b5d;
140 : 0db6c;
141 : 62274;
142 : 2ff58;
143 : 7e450;
144 : 66d25;
145 : 267ae;
146 : 21ec2;
147 : 5c609;
148 : 7cced;
149 : 02819;
14a : 1f8e9;
14b : 15719;
14c : 56cc0;
14d : 35cdd;
14e : 5604f;
14f : 2e1f9;
150 : 595d8;
151 : 51ed5;
152 : 06bf8;
153 : 7e30d;
154 : 371ee;
155 : 5eeb2;
156 : 7eb48;
157 : 7dd0f;
158 : 74b75;
159 : 6464d;
15a : 4c965;
15b : 0f2df;
15c : 28d86;
15d : 3ace3;
15e : 337cc;
15f : 5ce3c;
160 : 74f3f;
161 : 2d52b;
162 : 79f59;
163 : 4f788;
164 : 4908f;
165 : 37c2f;
166 : 07880;
167 : 58491;
168 : 4c396;
169 : 3d0d8;
16a : 4b44d;
16b : 17c21;
16c : 487c4;
16d : 45e03;
16e : 371c8;
16f : 4706d;
170 : 5f0b4;
171 : 12579;
172 : 7cc94;
173 : 2fd8c;
174 : 0d81f;
175 : 2f168;
176 : 5ecf6;
177 : 3e751;
178 : 35907;
179 : 516d8;
17a : 29c7c;
17b : 005ef;
17c : 1e021;
17d : 75802;
17e : 698cb;
17f : 2928b;
180 : 09e65;
181 : 55f9c;
182 : 1b7ba;
183 : 522bc;
184 : 4d7d0;
185 : 1aa0e;
186 : 2f7d3;
187 : 2f4ff;
188 : 75208;
189 : 56e44;
18a : 7dd47;
18b : 374a8;
18c : 0f1c6;
18d : 436d4;
18e : 71375;
18f : 7c2a2;
190 : 12a07;
191 : 72670;
192 : 0c1a4;
193 : 6af4d;
194 : 1557b;
195 : 5c85a;
196 : 4229c;
197 : 7f602;
198 : 1e17c;
199 : 6ab98;
19a : 56a18;
19b : 5af30;
19c : 70397;
19d : 4aa79;
19e : 510c6;
19f : 66328;
1a0 : 7344e;
1a1 : 039d1;
1a2 : 52359;
1a3 : 3aff9;
1a4 : 682b0;
1a5 : 5b8d3;
1a6 : 250fb;
1a7 : 706a8;
1a8 : 6eb95;
1a9 : 66359;
1aa : 1f547;
1ab : 434ac;
1ac : 51a34;
1ad : 73fbe;
1ae : 4288e;
1af : 463bc;
1b0 : 550bf;
1b1 : 28ab5;
1b2 : 443c0;
1b3 : 51949;
1b4 : 73088;
1b5 : 7362c;
1b6 : 1d380;
1b7 : 46a2e;
1b8 : 1590b;
1b9 : 313ed;
1ba : 2f1bc;
1bb : 31a9d;
1bc : 6e4b0;
1bd : 10e5d;
1be : 307ba;
1bf : 382ee;
1c0 : 2c50a;
1c1 : 442d4;
1c2 : 7c5b1;
1c3 : 5057d;
1c4 : 44d1d;
1c5 : 5d94e;
1c6 : 432df;
1c7 : 24dca;
1c8 : 5408a;
1c9 : 404d9;
1ca : 7ebfa;
1cb : 59a26;
1cc : 15ef8;
1cd : 40d9a;
1ce : 394ed;
1cf : 3c078;
1d0 : 475f5;
1d1 : 442d9;
1d2 : 37891;
1d3 : 30bab;
1d4 : 12d22;
1d5 : 5c294;
1d6 : 05118;
1d7 : 2a161;
1d8 : 1c779;
1d9 : 4e7e9;
1da : 0740c;
1db : 4e35b;
1dc : 28d16;
1dd : 12b21;
1de : 7be39;
1df : 3793d;
1e0 : 190cf;
1e1 : 00749;
1e2 : 5f21a;
1e3 : 66589;
1e4 : 20caf;
1e5 : 04150;
1e6 : 1fe20;
1e7 : 7c11c;
1e8 : 5ac01;
1e9 : 42e46;
1ea : 1d22a;
1eb : 27af0;
1ec : 61334;
1ed : 16fab;
1ee : 60f93;
1ef : 1436d;
1f0 : 0e7bb;
1f1 : 064a3;
1f2 : 6a743;
1f3 : 604cb;
1f4 : 18f84;
1f5 : 2a491;
1f6 : 7901d;
1f7 : 01813;
1f8 : 2377c;
1f9 : 5cc88;
1fa : 41ed2;
1fb : 62119;
1fc : 10b7a;
1fd : 5a379;
1fe : 02675;
1ff : 52662;

END;
